-----BEGIN PGP SIGNATURE-----

iQIcBAABCgAGBQJizVNwAAoJEOU9mJqeLUe/+WIP/3okLjSQTYH4+6fVeEe9uve8
8Nnr7Z7RS3lQqoDdRlf+bPV1GPyKC5vdPqrQ+7jB6fTSp8UPFGwNlhzEgFQywkUa
214aERiryTNRcL7QnhuuHlI8AbujEJIyhpT37NUqk0KIVVk1eJ0LWdtuDLvN5SgP
Qb7bJoYu7qUljVPu0wPl/SssrcNDF+WzTahgncOKgGbQZR0zJGFvY373raZdE34/
9+s0akaozCDQSrv8Duxw1jM6sdwc8VNdh1Yv+/H7DpG0jbe/3zJBzYlL4ssBVnT0
4ZZTmAJsGuEzxWkYH5tD6P0S8C8sVK2xyHETP3/PxSq3tKGQ9clpco1S6V1P5toE
PitoqYSn/kUldJ0vlcUQy9D8r93nufNy+hOIXvfxxXAOVrINuWwVRn8SIjhKpz8G
YuvjVtK3vTWqQR2jekeBSwkbc9ET3Ja0UJe0mv1Ju7XAxJzwXJ1mLW8ZVxuyok0e
wnWH7FqWS3aR+9H8wVt9TdrZs7bkdXfuSNR7U6GE0pQF+7bJwTKT8yrEqJfBTXpl
Mk3AWE87eYgOxRRdTt/XR6OOe6+mbwSs1njNgpLld/RGPBgedOIab18R09IV0Ieg
+Q9dTV+P9E+MIGJZteeFIBsqjySpqU2ry9M9hcrqKtBpkmcVdmIYKg4ZVNYTmPl5
bA1EbiQfN4Ld3c4BWpjw
=YwUe
-----END PGP SIGNATURE-----
