-----BEGIN PGP SIGNATURE-----

iQIcBAABCgAGBQJizVMPAAoJEOU9mJqeLUe/3cIP/23mhVjBWgDSo6RqZy2R3RRc
+7XbjZRm3xrhvUI9azeGJ/zOyBU2VVS1lb1HB8cL8/aOVYT1bDQDVxaUSRPXwpoN
SIjBAwFlicWHjmEhaFUegECzibmRNZln2ZWbKXiJgIB/UZDwp1Rrm4tnZQGZ7AzZ
ydBtAye9YtmZ8+FmGYFSKU0Wb31/6BMv1ryLyHQKNvZ6aqDchUBvO2eemSJgW2fW
rUEyLFEf3jlUlJhyGm6BuUE5NZXJAlYpH0/R2KvfhYqc2q6nwNhhXkdjdGRO0Jyc
3aLfZf6CAIYjpAvefPh8wEgyk61sYpTvd6aV8mGOxEJdHJw5IVQ8EalPMhMv4N1M
Cezy73nSBt2IkkYhkdwpt9ZCKsLoe5vHgZ4rwENYGQk2s5qro0ztmdiIECCc0diF
5+QYX4jvjpJ/KQfU2ZGLOsZBNJeqQHOWPvdjYbCOrfYORVmQaEYhB/sF8BubZlwZ
Qil8dnB3JtB0v4g2vEU5nwXa2ZPKLnUwoQT9nD7dcL18zJlsABUSilBl9kyz/xFI
WAfP4f8peAO1Gakrxeh4n4q+r7B8Hxpy1LQu4jtTlSG+2IYgbsYgf9sYyrBwOGnz
wGh0boVkaqkrGFZeQNaAs4RnQrURpRsBX3nQUFQySdnv9YdtLAWJL4ii8V02GQy+
Asx5RQUoAHGo2g1ApfLM
=dBKn
-----END PGP SIGNATURE-----
