-----BEGIN PGP SIGNATURE-----

iQIcBAABCgAGBQJizVCxAAoJEOU9mJqeLUe/mngQALEfcNCIQnNQRUuvS4fyVASG
tb5A8C1Td+JoFUSRABUjvCW8NO1aW27wyD156swnaYnbyJhAe4kRqaDQBgpuozfe
52InUS6cw9NQ2tBi+45a7qV9yBKWrflQbrKxjynw87hI+V635Nr9tnX334wJbjo4
x1dt9t3JPWEdB2ewhA0q7YUnPeuBpR24QCJn2TJ6bdEs96eZkZHIlI94r0EGS9I5
5wV7EHI8lM8DMRxBL7LE1K7D2RPAF+xdHcE3IXTGcKjp7OQawBBRurT7CpF2gdvT
/g+X13yqwpvslUtj4+x5oC56Vz0DDSs85Am6kkKH1Uzzot+eX74tGXeVKuVfs3bR
wDNZyKj/ppWFb43/OpBTFZavgX/aQHkGe/xKgoUzCG/QSn0tulPfZBKNyP7aBUZ2
9+Hltbb7OD7xRRoPgE+mPp9aJzxtWIo01gLU/Gvj3ZMjT+kzSyr7HMydrJyAw0Qo
OoqAyiNbN3dixfAu29B9ho+mrVU8Qy7L2za+nBbLr46LjWoZlA1Zm/GPMQr0nMGA
Cz0TJgoROmkz+yVBKHt9NspmymG9Mam/ONo/XsGxIGVah2OQIwfMea31aB2/zO4A
H8oUziYogTbQ5SGQRgZs+IO4wQR1mliJekk2r58ORB/vlyKZnib58Hlmv1nC6r3p
W63EEtGwHsDcUkBPNacV
=nxa+
-----END PGP SIGNATURE-----
